Mux21a/simulation/qsim/Mux21a.msim.vcd
$comment
	File created using the following command:
		vcd file Mux21a.msim.vcd -direction
$end
$date
	Sun Dec 11 12:33:23 2022
$end
$version
	Questa Intel Starter FPGA Edition Version 2021.2
$end
$timescale
	1ps
$end

$scope module mux21a_vhd_vec_tst $end
$var wire 1 ! a $end
$var wire 1 " b $end
$var wire 1 # s $end
$var wire 1 $ y $end

$scope module i1 $end
$var wire 1 % gnd $end
$var wire 1 & vcc $end
$var wire 1 ' unknown $end
$var wire 1 ( devoe $end
$var wire 1 ) devclrn $end
$var wire 1 * devpor $end
$var wire 1 + ww_devoe $end
$var wire 1 , ww_devclrn $end
$var wire 1 - ww_devpor $end
$var wire 1 . ww_a $end
$var wire 1 / ww_b $end
$var wire 1 0 ww_s $end
$var wire 1 1 ww_y $end
$var wire 1 2 \y~output_o\ $end
$var wire 1 3 \b~input_o\ $end
$var wire 1 4 \s~input_o\ $end
$var wire 1 5 \a~input_o\ $end
$var wire 1 6 \y~0_combout\ $end
$upscope $end
$upscope $end
$enddefinitions $end
#0
$dumpvars
0!
0"
1#
0$
0%
1&
x'
1(
1)
1*
1+
1,
1-
0.
0/
10
01
02
03
14
05
06
$end
#5000
1"
1/
13
16
12
11
1$
#10000
0"
0/
03
06
02
01
0$
#15000
1"
1/
13
16
12
11
1$
#20000
0"
1!
0/
1.
15
03
06
02
01
0$
#25000
1"
1/
13
16
12
11
1$
#30000
0"
0/
03
06
02
01
0$
#35000
1"
1/
13
16
12
11
1$
#40000
0"
0!
0/
0.
05
03
06
02
01
0$
#45000
1"
1/
13
16
12
11
1$
#50000
0"
0/
03
06
02
01
0$
#55000
1"
1/
13
16
12
11
1$
#60000
0"
1!
0/
1.
15
03
06
02
01
0$
#65000
1"
1/
13
16
12
11
1$
#70000
0"
0/
03
06
02
01
0$
#75000
1"
1/
13
16
12
11
1$
#80000
0"
0!
0/
0.
05
03
06
02
01
0$
#85000
1"
1/
13
16
12
11
1$
#90000
0"
0/
03
06
02
01
0$
#95000
1"
1/
13
16
12
11
1$
#100000
0"
1!
0/
1.
15
03
06
02
01
0$
#105000
1"
1/
13
16
12
11
1$
#110000
0"
0/
03
06
02
01
0$
#115000
1"
1/
13
16
12
11
1$
#120000
0"
0!
0/
0.
05
03
06
02
01
0$
#125000
1"
1/
13
16
12
11
1$
#130000
0"
0/
03
06
02
01
0$
#135000
1"
1/
13
16
12
11
1$
#140000
0"
1!
0/
1.
15
03
06
02
01
0$
#145000
1"
1/
13
16
12
11
1$
#150000
0"
0/
03
06
02
01
0$
#155000
1"
1/
13
16
12
11
1$
#160000
0"
0!
0/
0.
05
03
06
02
01
0$
#165000
1"
1/
13
16
12
11
1$
#170000
0"
0/
03
06
02
01
0$
#175000
1"
1/
13
16
12
11
1$
#180000
0"
1!
0/
1.
15
03
06
02
01
0$
#185000
1"
1/
13
16
12
11
1$
#190000
0"
0#
0/
00
04
03
#195000
1"
1/
13
#200000
0"
0!
0/
0.
05
03
06
02
01
0$
#205000
1"
1/
13
#210000
0"
0/
03
#215000
1"
1/
13
#220000
0"
1!
0/
1.
15
03
16
12
11
1$
#225000
1"
1/
13
#230000
0"
0/
03
#235000
1"
1/
13
#240000
0"
0!
0/
0.
05
03
06
02
01
0$
#245000
1"
1/
13
#250000
0"
0/
03
#255000
1"
1/
13
#260000
0"
1!
0/
1.
15
03
16
12
11
1$
#265000
1"
1/
13
#270000
0"
0/
03
#275000
1"
1/
13
#280000
0"
0!
1#
0/
0.
10
14
05
03
06
02
01
0$
#285000
1"
1/
13
16
12
11
1$
#290000
0"
0/
03
06
02
01
0$
#295000
1"
1/
13
16
12
11
1$
#300000
0"
1!
0/
1.
15
03
06
02
01
0$
#305000
1"
1/
13
16
12
11
1$
#310000
0"
0/
03
06
02
01
0$
#315000
1"
1/
13
16
12
11
1$
#320000
0"
0!
0/
0.
05
03
06
02
01
0$
#325000
1"
1/
13
16
12
11
1$
#330000
0"
0/
03
06
02
01
0$
#335000
1"
1/
13
16
12
11
1$
#340000
0"
1!
0/
1.
15
03
06
02
01
0$
#345000
1"
1/
13
16
12
11
1$
#350000
0"
0#
0/
00
04
03
#355000
1"
1/
13
#360000
0"
0!
0/
0.
05
03
06
02
01
0$
#365000
1"
1/
13
#370000
0"
0/
03
#375000
1"
1/
13
#380000
0"
1!
0/
1.
15
03
16
12
11
1$
#385000
1"
1/
13
#390000
0"
0/
03
#395000
1"
1/
13
#400000
0"
0!
0/
0.
05
03
06
02
01
0$
#405000
1"
1/
13
#410000
0"
0/
03
#415000
1"
1/
13
#420000
0"
1!
0/
1.
15
03
16
12
11
1$
#425000
1"
1/
13
#430000
0"
0/
03
#435000
1"
1/
13
#440000
0"
0!
0/
0.
05
03
06
02
01
0$
#445000
1"
1/
13
#450000
0"
0/
03
#455000
1"
1/
13
#460000
0"
1!
0/
1.
15
03
16
12
11
1$
#465000
1"
1/
13
#470000
0"
1#
0/
10
14
03
06
02
01
0$
#475000
1"
1/
13
16
12
11
1$
#480000
0"
0!
0/
0.
05
03
06
02
01
0$
#485000
1"
1/
13
16
12
11
1$
#490000
0"
0/
03
06
02
01
0$
#495000
1"
1/
13
16
12
11
1$
#500000
0"
1!
0/
1.
15
03
06
02
01
0$
#505000
1"
1/
13
16
12
11
1$
#510000
0"
0/
03
06
02
01
0$
#515000
1"
1/
13
16
12
11
1$
#520000
0"
0!
0/
0.
05
03
06
02
01
0$
#525000
1"
1/
13
16
12
11
1$
#530000
0"
0#
0/
00
04
03
06
02
01
0$
#535000
1"
1/
13
#540000
0"
1!
0/
1.
15
03
16
12
11
1$
#545000
1"
1/
13
#550000
0"
0/
03
#555000
1"
1/
13
#560000
0"
0!
1#
0/
0.
10
14
05
03
06
02
01
0$
#565000
1"
1/
13
16
12
11
1$
#570000
0"
0/
03
06
02
01
0$
#575000
1"
1/
13
16
12
11
1$
#580000
0"
1!
0/
1.
15
03
06
02
01
0$
#585000
1"
1/
13
16
12
11
1$
#590000
0"
0/
03
06
02
01
0$
#595000
1"
1/
13
16
12
11
1$
#600000
0"
0!
0/
0.
05
03
06
02
01
0$
#605000
1"
1/
13
16
12
11
1$
#610000
0"
0/
03
06
02
01
0$
#615000
1"
1/
13
16
12
11
1$
#620000
0"
1!
0/
1.
15
03
06
02
01
0$
#625000
1"
1/
13
16
12
11
1$
#630000
0"
0/
03
06
02
01
0$
#635000
1"
1/
13
16
12
11
1$
#640000
0"
0!
0#
0/
0.
00
04
05
03
06
02
01
0$
#645000
1"
1/
13
#650000
0"
0/
03
#655000
1"
1/
13
#660000
0"
1!
0/
1.
15
03
16
12
11
1$
#665000
1"
1/
13
#670000
0"
0/
03
#675000
1"
1/
13
#680000
0"
0!
0/
0.
05
03
06
02
01
0$
#685000
1"
1/
13
#690000
0"
0/
03
#695000
1"
1/
13
#700000
0"
1!
0/
1.
15
03
16
12
11
1$
#705000
1"
1/
13
#710000
0"
0/
03
#715000
1"
1/
13
#720000
0"
0!
0/
0.
05
03
06
02
01
0$
#725000
1"
1/
13
#730000
0"
0/
03
#735000
1"
1/
13
#740000
0"
1!
0/
1.
15
03
16
12
11
1$
#745000
1"
1/
13
#750000
0"
0/
03
#755000
1"
1/
13
#760000
0"
0!
0/
0.
05
03
06
02
01
0$
#765000
1"
1/
13
#770000
0"
0/
03
#775000
1"
1/
13
#780000
0"
1!
0/
1.
15
03
16
12
11
1$
#785000
1"
1/
13
#790000
0"
0/
03
#795000
1"
1/
13
#800000
0"
0!
0/
0.
05
03
06
02
01
0$
#805000
1"
1/
13
#810000
0"
0/
03
#815000
1"
1/
13
#820000
0"
1!
0/
1.
15
03
16
12
11
1$
#825000
1"
1/
13
#830000
0"
0/
03
#835000
1"
1/
13
#840000
0"
0!
0/
0.
05
03
06
02
01
0$
#845000
1"
1/
13
#850000
0"
0/
03
#855000
1"
1/
13
#860000
0"
1!
0/
1.
15
03
16
12
11
1$
#865000
1"
1/
13
#870000
0"
0/
03
#875000
1"
1/
13
#880000
0"
0!
0/
0.
05
03
06
02
01
0$
#885000
1"
1/
13
#890000
0"
0/
03
#895000
1"
1/
13
#900000
0"
1!
0/
1.
15
03
16
12
11
1$
#905000
1"
1/
13
#910000
0"
0/
03
#915000
1"
1/
13
#920000
0"
0!
0/
0.
05
03
06
02
01
0$
#925000
1"
1/
13
#930000
0"
0/
03
#935000
1"
1/
13
#940000
0"
1!
0/
1.
15
03
16
12
11
1$
#945000
1"
1/
13
#950000
0"
0/
03
#955000
1"
1/
13
#960000
0"
0!
0/
0.
05
03
06
02
01
0$
#965000
1"
1/
13
#970000
0"
0/
03
#975000
1"
1/
13
#980000
0"
1!
0/
1.
15
03
16
12
11
1$
#985000
1"
1/
13
#990000
0"
0/
03
#995000
1"
1/
13
