SineGenerator/simulation/qsim/SineGenerator.msim.vcd
$comment
	File created using the following command:
		vcd file SineGenerator.msim.vcd -direction
$end
$date
	Sun Dec 11 12:45:48 2022
$end
$version
	Questa Intel Starter FPGA Edition Version 2021.2
$end
$timescale
	1ps
$end

$scope module sinegenerator_vhd_vec_tst $end
$var wire 1 ! CLK $end
$var wire 1 " DOUT [7] $end
$var wire 1 # DOUT [6] $end
$var wire 1 $ DOUT [5] $end
$var wire 1 % DOUT [4] $end
$var wire 1 & DOUT [3] $end
$var wire 1 ' DOUT [2] $end
$var wire 1 ( DOUT [1] $end
$var wire 1 ) DOUT [0] $end

$scope module i1 $end
$var wire 1 * gnd $end
$var wire 1 + vcc $end
$var wire 1 , unknown $end
$var wire 1 - devoe $end
$var wire 1 . devclrn $end
$var wire 1 / devpor $end
$var wire 1 0 ww_devoe $end
$var wire 1 1 ww_devclrn $end
$var wire 1 2 ww_devpor $end
$var wire 1 3 ww_CLK $end
$var wire 1 4 ww_DOUT [7] $end
$var wire 1 5 ww_DOUT [6] $end
$var wire 1 6 ww_DOUT [5] $end
$var wire 1 7 ww_DOUT [4] $end
$var wire 1 8 ww_DOUT [3] $end
$var wire 1 9 ww_DOUT [2] $end
$var wire 1 : ww_DOUT [1] $end
$var wire 1 ; ww_DOUT [0] $end
$var wire 1 < \u1|altsyncram_component|auto_generated|ram_block1a0_PORTAADDR_bus\ [5] $end
$var wire 1 = \u1|altsyncram_component|auto_generated|ram_block1a0_PORTAADDR_bus\ [4] $end
$var wire 1 > \u1|altsyncram_component|auto_generated|ram_block1a0_PORTAADDR_bus\ [3] $end
$var wire 1 ? \u1|altsyncram_component|auto_generated|ram_block1a0_PORTAADDR_bus\ [2] $end
$var wire 1 @ \u1|altsyncram_component|auto_generated|ram_block1a0_PORTAADDR_bus\ [1] $end
$var wire 1 A \u1|altsyncram_component|auto_generated|ram_block1a0_PORTAADDR_bus\ [0] $end
$var wire 1 B \u1|altsyncram_component|auto_generated|ram_block1a0_PORTADATAOUT_bus\ [17] $end
$var wire 1 C \u1|altsyncram_component|auto_generated|ram_block1a0_PORTADATAOUT_bus\ [16] $end
$var wire 1 D \u1|altsyncram_component|auto_generated|ram_block1a0_PORTADATAOUT_bus\ [15] $end
$var wire 1 E \u1|altsyncram_component|auto_generated|ram_block1a0_PORTADATAOUT_bus\ [14] $end
$var wire 1 F \u1|altsyncram_component|auto_generated|ram_block1a0_PORTADATAOUT_bus\ [13] $end
$var wire 1 G \u1|altsyncram_component|auto_generated|ram_block1a0_PORTADATAOUT_bus\ [12] $end
$var wire 1 H \u1|altsyncram_component|auto_generated|ram_block1a0_PORTADATAOUT_bus\ [11] $end
$var wire 1 I \u1|altsyncram_component|auto_generated|ram_block1a0_PORTADATAOUT_bus\ [10] $end
$var wire 1 J \u1|altsyncram_component|auto_generated|ram_block1a0_PORTADATAOUT_bus\ [9] $end
$var wire 1 K \u1|altsyncram_component|auto_generated|ram_block1a0_PORTADATAOUT_bus\ [8] $end
$var wire 1 L \u1|altsyncram_component|auto_generated|ram_block1a0_PORTADATAOUT_bus\ [7] $end
$var wire 1 M \u1|altsyncram_component|auto_generated|ram_block1a0_PORTADATAOUT_bus\ [6] $end
$var wire 1 N \u1|altsyncram_component|auto_generated|ram_block1a0_PORTADATAOUT_bus\ [5] $end
$var wire 1 O \u1|altsyncram_component|auto_generated|ram_block1a0_PORTADATAOUT_bus\ [4] $end
$var wire 1 P \u1|altsyncram_component|auto_generated|ram_block1a0_PORTADATAOUT_bus\ [3] $end
$var wire 1 Q \u1|altsyncram_component|auto_generated|ram_block1a0_PORTADATAOUT_bus\ [2] $end
$var wire 1 R \u1|altsyncram_component|auto_generated|ram_block1a0_PORTADATAOUT_bus\ [1] $end
$var wire 1 S \u1|altsyncram_component|auto_generated|ram_block1a0_PORTADATAOUT_bus\ [0] $end
$var wire 1 T \CLK~inputclkctrl_INCLK_bus\ [3] $end
$var wire 1 U \CLK~inputclkctrl_INCLK_bus\ [2] $end
$var wire 1 V \CLK~inputclkctrl_INCLK_bus\ [1] $end
$var wire 1 W \CLK~inputclkctrl_INCLK_bus\ [0] $end
$var wire 1 X \DOUT[0]~output_o\ $end
$var wire 1 Y \DOUT[1]~output_o\ $end
$var wire 1 Z \DOUT[2]~output_o\ $end
$var wire 1 [ \DOUT[3]~output_o\ $end
$var wire 1 \ \DOUT[4]~output_o\ $end
$var wire 1 ] \DOUT[5]~output_o\ $end
$var wire 1 ^ \DOUT[6]~output_o\ $end
$var wire 1 _ \DOUT[7]~output_o\ $end
$var wire 1 ` \CLK~input_o\ $end
$var wire 1 a \CLK~inputclkctrl_outclk\ $end
$var wire 1 b \Q1[0]~15_combout\ $end
$var wire 1 c \Q1[1]~5_combout\ $end
$var wire 1 d \Q1[1]~6\ $end
$var wire 1 e \Q1[2]~7_combout\ $end
$var wire 1 f \Q1[2]~8\ $end
$var wire 1 g \Q1[3]~9_combout\ $end
$var wire 1 h \Q1[3]~10\ $end
$var wire 1 i \Q1[4]~11_combout\ $end
$var wire 1 j \Q1[4]~12\ $end
$var wire 1 k \Q1[5]~13_combout\ $end
$var wire 1 l \u1|altsyncram_component|auto_generated|q_a\ [7] $end
$var wire 1 m \u1|altsyncram_component|auto_generated|q_a\ [6] $end
$var wire 1 n \u1|altsyncram_component|auto_generated|q_a\ [5] $end
$var wire 1 o \u1|altsyncram_component|auto_generated|q_a\ [4] $end
$var wire 1 p \u1|altsyncram_component|auto_generated|q_a\ [3] $end
$var wire 1 q \u1|altsyncram_component|auto_generated|q_a\ [2] $end
$var wire 1 r \u1|altsyncram_component|auto_generated|q_a\ [1] $end
$var wire 1 s \u1|altsyncram_component|auto_generated|q_a\ [0] $end
$var wire 1 t Q1 [5] $end
$var wire 1 u Q1 [4] $end
$var wire 1 v Q1 [3] $end
$var wire 1 w Q1 [2] $end
$var wire 1 x Q1 [1] $end
$var wire 1 y Q1 [0] $end
$upscope $end
$upscope $end
$enddefinitions $end
#0
$dumpvars
0!
0*
1+
x,
1-
1.
1/
10
11
12
03
0X
0Y
0Z
0[
0\
0]
0^
0_
0`
0a
1b
0c
0d
0e
1f
0g
0h
0i
1j
0k
0B
0C
0D
0E
0F
0G
0H
0I
0J
0K
0L
0M
0N
0O
0P
0Q
0R
0S
0l
0m
0n
0o
0p
0q
0r
0s
0t
0u
0v
0w
0x
0y
1T
1U
1V
0W
0"
0#
0$
0%
0&
0'
0(
0)
04
05
06
07
08
09
0:
0;
0<
0=
0>
0?
0@
0A
$end
#10000
1!
13
1`
1W
1a
1y
1A
0b
1c
#10500
1S
1R
1Q
1P
1O
1N
1M
1L
1s
1r
1q
1p
1o
1n
1m
1l
1_
1^
1]
1\
1[
1Z
1Y
1X
14
15
16
17
18
19
1:
1;
1)
1(
1'
1&
1%
1$
1#
1"
#20000
0!
03
0`
0W
0a
#30000
1!
13
1`
1W
1a
0y
1x
0A
1@
1b
#30500
0S
0s
0X
0;
0)
#40000
0!
03
0`
0W
0a
#50000
1!
13
1`
1W
1a
1y
1A
0b
0c
1d
1e
#50500
0R
0r
0Y
0:
0(
#60000
0!
03
0`
0W
0a
#70000
1!
13
1`
1W
1a
0y
0x
1w
0A
0@
1?
0e
0f
1b
0d
1e
1f
1g
0g
#70500
1S
0Q
1s
0q
0Z
1X
09
1;
1)
0'
#80000
0!
03
0`
0W
0a
#90000
1!
13
1`
1W
1a
1y
1A
0b
1c
#90500
1Q
0P
1q
0p
0[
1Z
08
19
1'
0&
#100000
0!
03
0`
0W
0a
#110000
1!
13
1`
1W
1a
0y
1x
0A
1@
1b
#110500
0S
0Q
0s
0q
0Z
0X
09
0;
0)
0'
#120000
0!
03
0`
0W
0a
#130000
1!
13
1`
1W
1a
1y
1A
0b
0c
1d
0e
0f
1g
#130500
1S
1P
0O
1s
1p
0o
0\
1[
1X
07
18
1;
1)
1&
0%
#140000
0!
03
0`
0W
0a
#150000
1!
13
1`
1W
1a
0y
0x
0w
1v
0A
0@
0?
1>
0g
1h
1e
1f
1b
0d
0e
1g
0h
1i
0i
#150500
0S
1R
0P
0s
1r
0p
0[
1Y
0X
08
1:
0;
0)
1(
0&
#160000
0!
03
0`
0W
0a
#170000
1!
13
1`
1W
1a
1y
1A
0b
1c
#170500
1S
0R
1P
1O
0N
1s
0r
1p
1o
0n
0]
1\
1[
0Y
1X
06
17
18
0:
1;
1)
0(
1&
1%
0$
#180000
0!
03
0`
0W
0a
#190000
1!
13
1`
1W
1a
0y
1x
0A
1@
1b
#190500
0S
0P
0s
0p
0[
0X
08
0;
0)
0&
#200000
0!
03
0`
0W
0a
#210000
1!
13
1`
1W
1a
1y
1A
0b
0c
1d
1e
#210500
1R
1Q
0O
1r
1q
0o
0\
1Z
1Y
07
19
1:
1(
1'
0%
#220000
0!
03
0`
0W
0a
#230000
1!
13
1`
1W
1a
0y
0x
1w
0A
0@
1?
0e
0f
1b
0d
1e
1f
0g
1h
1i
1g
0h
0i
#230500
1S
0Q
1P
1O
1N
0M
1s
0q
1p
1o
1n
0m
0^
1]
1\
1[
0Z
1X
05
16
17
18
09
1;
1)
0'
1&
1%
1$
0#
#240000
0!
03
0`
0W
0a
#250000
1!
13
1`
1W
1a
1y
1A
0b
1c
#250500
0S
0R
0P
0s
0r
0p
0[
0Y
0X
08
0:
0;
0)
0(
0&
#260000
0!
03
0`
0W
0a
#270000
1!
13
1`
1W
1a
0y
1x
0A
1@
1b
#270500
1Q
0O
1q
0o
0\
1Z
07
19
1'
0%
#280000
0!
03
0`
0W
0a
#290000
1!
13
1`
1W
1a
1y
1A
0b
0c
1d
0e
0f
0g
1h
1i
#290500
0Q
1P
1O
0N
0q
1p
1o
0n
0]
1\
1[
0Z
06
17
18
09
0'
1&
1%
0$
#300000
0!
03
0`
0W
0a
#310000
1!
13
1`
1W
1a
0y
0x
0w
0v
1u
0A
0@
0?
0>
1=
0i
0j
1g
0h
1e
1f
1b
0d
0e
0g
1i
1j
1k
0k
#310500
1Q
0O
1q
0o
0\
1Z
07
19
1'
0%
#320000
0!
03
0`
0W
0a
#330000
1!
13
1`
1W
1a
1y
1A
0b
1c
#330500
0Q
0P
0q
0p
0[
0Z
08
09
0'
0&
#340000
0!
03
0`
0W
0a
#350000
1!
13
1`
1W
1a
0y
1x
0A
1@
1b
#350500
1Q
1O
1N
1M
0L
1q
1o
1n
1m
0l
0_
1^
1]
1\
1Z
04
15
16
17
19
1'
1%
1$
1#
0"
#360000
0!
03
0`
0W
0a
#370000
1!
13
1`
1W
1a
1y
1A
0b
0c
1d
1e
#370500
0Q
1P
0O
0q
1p
0o
0\
1[
0Z
07
18
09
0'
1&
0%
#380000
0!
03
0`
0W
0a
#390000
1!
13
1`
1W
1a
0y
0x
1w
0A
0@
1?
0e
0f
1b
0d
1e
1f
1g
0g
#390500
1Q
1O
0N
1q
1o
0n
0]
1\
1Z
06
17
19
1'
1%
0$
#400000
0!
03
0`
0W
0a
#410000
1!
13
1`
1W
1a
1y
1A
0b
1c
#410500
0Q
0P
0q
0p
0[
0Z
08
09
0'
0&
#420000
0!
03
0`
0W
0a
#430000
1!
13
1`
1W
1a
0y
1x
0A
1@
1b
#430500
1S
1Q
0O
1s
1q
0o
0\
1Z
1X
07
19
1;
1)
1'
0%
#440000
0!
03
0`
0W
0a
#450000
1!
13
1`
1W
1a
1y
1A
0b
0c
1d
0e
0f
1g
#450500
0S
1R
0Q
1P
1O
1N
0M
0s
1r
0q
1p
1o
1n
0m
0^
1]
1\
1[
0Z
1Y
0X
05
16
17
18
09
1:
0;
0)
1(
0'
1&
1%
1$
0#
#460000
0!
03
0`
0W
0a
#470000
1!
13
1`
1W
1a
0y
0x
0w
1v
0A
0@
0?
1>
0g
1h
1e
1f
1b
0d
0e
1g
0h
0i
0j
1k
1i
1j
0k
#470500
0R
0P
0r
0p
0[
0Y
08
0:
0(
0&
#480000
0!
03
0`
0W
0a
#490000
1!
13
1`
1W
1a
1y
1A
0b
1c
#490500
1S
1R
1Q
0O
1s
1r
1q
0o
0\
1Z
1Y
1X
07
19
1:
1;
1)
1(
1'
0%
#500000
0!
03
0`
0W
0a
#510000
1!
13
1`
1W
1a
0y
1x
0A
1@
1b
#510500
0S
1P
1O
0N
0s
1p
1o
0n
0]
1\
1[
0X
06
17
18
0;
0)
1&
1%
0$
#520000
0!
03
0`
0W
0a
#530000
1!
13
1`
1W
1a
1y
1A
0b
0c
1d
1e
#530500
1S
0P
1s
0p
0[
1X
08
1;
1)
0&
#540000
0!
03
0`
0W
0a
#550000
1!
13
1`
1W
1a
0y
0x
1w
0A
0@
1?
0e
0f
1b
0d
1e
1f
0g
1h
0i
0j
1g
0h
1i
1j
1k
0k
#550500
0S
0R
0Q
0s
0r
0q
0Z
0Y
0X
09
0:
0;
0)
0(
0'
#560000
0!
03
0`
0W
0a
#570000
1!
13
1`
1W
1a
1y
1A
0b
1c
#570500
1S
1R
1P
0O
1s
1r
1p
0o
0\
1[
1Y
1X
07
18
1:
1;
1)
1(
1&
0%
#580000
0!
03
0`
0W
0a
#590000
1!
13
1`
1W
1a
0y
1x
0A
1@
1b
#590500
1Q
0P
1q
0p
0[
1Z
08
19
1'
0&
#600000
0!
03
0`
0W
0a
#610000
1!
13
1`
1W
1a
1y
1A
0b
0c
1d
0e
0f
0g
1h
0i
0j
1k
#610500
0S
0R
0s
0r
0Y
0X
0:
0;
0)
0(
#620000
0!
03
0`
0W
0a
#630000
1!
13
1`
1W
1a
0y
0x
0w
0v
0u
1t
0A
0@
0?
0>
0=
1<
0k
1i
1j
1g
0h
1e
1f
1b
0d
0e
0g
0i
1k
#630500
1R
0Q
1r
0q
0Z
1Y
09
1:
1(
0'
#640000
0!
03
0`
0W
0a
#650000
1!
13
1`
1W
1a
1y
1A
0b
1c
#650500
0R
0r
0Y
0:
0(
#660000
0!
03
0`
0W
0a
#670000
1!
13
1`
1W
1a
0y
1x
0A
1@
1b
#670500
1R
1r
1Y
1:
1(
#680000
0!
03
0`
0W
0a
#690000
1!
13
1`
1W
1a
1y
1A
0b
0c
1d
1e
#690500
0R
1Q
0r
1q
1Z
0Y
19
0:
0(
1'
#700000
0!
03
0`
0W
0a
#710000
1!
13
1`
1W
1a
0y
0x
1w
0A
0@
1?
0e
0f
1b
0d
1e
1f
1g
0g
#710500
1S
1R
1s
1r
1Y
1X
1:
1;
1)
1(
#720000
0!
03
0`
0W
0a
#730000
1!
13
1`
1W
1a
1y
1A
0b
1c
#730500
0Q
1P
0q
1p
1[
0Z
18
09
0'
1&
#740000
0!
03
0`
0W
0a
#750000
1!
13
1`
1W
1a
0y
1x
0A
1@
1b
#750500
0S
0R
0P
1O
0s
0r
0p
1o
1\
0[
0Y
0X
17
08
0:
0;
0)
0(
0&
1%
#760000
0!
03
0`
0W
0a
#770000
1!
13
1`
1W
1a
1y
1A
0b
0c
1d
0e
0f
1g
#770500
1S
1R
1Q
1s
1r
1q
1Z
1Y
1X
19
1:
1;
1)
1(
1'
#780000
0!
03
0`
0W
0a
#790000
1!
13
1`
1W
1a
0y
0x
0w
1v
0A
0@
0?
1>
0g
1h
1e
1f
1b
0d
0e
1g
0h
1i
0i
#790500
0S
1P
0s
1p
1[
0X
18
0;
0)
1&
#800000
0!
03
0`
0W
0a
#810000
1!
13
1`
1W
1a
1y
1A
0b
1c
#810500
1S
0P
0O
1N
1s
0p
0o
1n
1]
0\
0[
1X
16
07
08
1;
1)
0&
0%
1$
#820000
0!
03
0`
0W
0a
#830000
1!
13
1`
1W
1a
0y
1x
0A
1@
1b
#830500
0S
0R
0Q
1O
0s
0r
0q
1o
1\
0Z
0Y
0X
17
09
0:
0;
0)
0(
0'
1%
#840000
0!
03
0`
0W
0a
#850000
1!
13
1`
1W
1a
1y
1A
0b
0c
1d
1e
#850500
1R
1P
1r
1p
1[
1Y
18
1:
1(
1&
#860000
0!
03
0`
0W
0a
#870000
1!
13
1`
1W
1a
0y
0x
1w
0A
0@
1?
0e
0f
1b
0d
1e
1f
0g
1h
1i
1g
0h
0i
#870500
1S
0R
1Q
0P
0O
0N
1M
1s
0r
1q
0p
0o
0n
1m
1^
0]
0\
0[
1Z
0Y
1X
15
06
07
08
19
0:
1;
1)
0(
1'
0&
0%
0$
1#
#880000
0!
03
0`
0W
0a
#890000
1!
13
1`
1W
1a
1y
1A
0b
1c
#890500
0S
0Q
1O
0s
0q
1o
1\
0Z
0X
17
09
0;
0)
0'
1%
#900000
0!
03
0`
0W
0a
#910000
1!
13
1`
1W
1a
0y
1x
0A
1@
1b
#910500
1Q
1P
1q
1p
1[
1Z
18
19
1'
1&
#920000
0!
03
0`
0W
0a
#930000
1!
13
1`
1W
1a
1y
1A
0b
0c
1d
0e
0f
0g
1h
1i
#930500
0Q
0O
1N
0q
0o
1n
1]
0\
0Z
16
07
09
0'
0%
1$
#940000
0!
03
0`
0W
0a
#950000
1!
13
1`
1W
1a
0y
0x
0w
0v
1u
0A
0@
0?
0>
1=
0i
0j
1g
0h
1e
1f
1b
0d
0e
0g
1i
1j
0k
1k
#950500
1Q
0P
1O
1q
0p
1o
1\
0[
1Z
17
08
19
1'
0&
1%
#960000
0!
03
0`
0W
0a
#970000
1!
13
1`
1W
1a
1y
1A
0b
1c
#970500
0Q
0O
0N
0M
1L
0q
0o
0n
0m
1l
1_
0^
0]
0\
0Z
14
05
06
07
09
0'
0%
0$
0#
1"
#980000
0!
03
0`
0W
0a
#990000
1!
13
1`
1W
1a
0y
1x
0A
1@
1b
#990500
1Q
1P
1q
1p
1[
1Z
18
19
1'
1&
